^C:\USERS\ВИКТОРИЯ\SOURCE\REPOS\15.6\15.6\15.6.CPP
C:\USERS\Виктория\SOURCE\REPOS\15.6\15.6\DEBUG\VC142.PDB
C:\USERS\Виктория\SOURCE\REPOS\15.6\15.6\DEBUG\VC142.IDB
C:\USERS\Виктория\SOURCE\REPOS\15.6\15.6\DEBUG\15.6.OBJ
